-------------------------------------------------------------------------------
Test set: org.example.RogueTest
-------------------------------------------------------------------------------
Tests run: 34, Failures: 0, Errors: 0, Skipped: 0, Time elapsed: 0.024 s - in org.example.RogueTest
