-------------------------------------------------------------------------------
Test set: org.example.RangerTest
-------------------------------------------------------------------------------
Tests run: 34, Failures: 0, Errors: 0, Skipped: 0, Time elapsed: 0.023 s - in org.example.RangerTest
