<?xml version="1.0" encoding="UTF-8"?>
<testsuite xmlns:xsi="http://www.w3.org/2001/XMLSchema-instance" xsi:noNamespaceSchemaLocation="https://maven.apache.org/surefire/maven-surefire-plugin/xsd/surefire-test-report-3.0.xsd" version="3.0" name="org.example.MageTest" time="0.029" tests="34" errors="0" skipped="0" failures="0">
  <properties>
    <property name="java.specification.version" value="19"/>
    <property name="sun.cpu.isalist" value="amd64"/>
    <property name="sun.jnu.encoding" value="Cp1252"/>
    <property name="java.class.path" value="C:\PROJECTS\PRO\Experis\Noroff\assignments\ASSIGNMENT1\RPG_Heroes\target\test-classes;C:\PROJECTS\PRO\Experis\Noroff\assignments\ASSIGNMENT1\RPG_Heroes\target\classes;C:\Users\stefa\.m2\repository\org\junit\jupiter\junit-jupiter\5.9.2\junit-jupiter-5.9.2.jar;C:\Users\stefa\.m2\repository\org\junit\jupiter\junit-jupiter-api\5.9.2\junit-jupiter-api-5.9.2.jar;C:\Users\stefa\.m2\repository\org\opentest4j\opentest4j\1.2.0\opentest4j-1.2.0.jar;C:\Users\stefa\.m2\repository\org\junit\platform\junit-platform-commons\1.9.2\junit-platform-commons-1.9.2.jar;C:\Users\stefa\.m2\repository\org\apiguardian\apiguardian-api\1.1.2\apiguardian-api-1.1.2.jar;C:\Users\stefa\.m2\repository\org\junit\jupiter\junit-jupiter-params\5.9.2\junit-jupiter-params-5.9.2.jar;C:\Users\stefa\.m2\repository\org\junit\jupiter\junit-jupiter-engine\5.9.2\junit-jupiter-engine-5.9.2.jar;C:\Users\stefa\.m2\repository\org\junit\platform\junit-platform-engine\1.9.2\junit-platform-engine-1.9.2.jar;"/>
    <property name="java.vm.vendor" value="Oracle Corporation"/>
    <property name="sun.arch.data.model" value="64"/>
    <property name="user.variant" value=""/>
    <property name="java.vendor.url" value="https://java.oracle.com/"/>
    <property name="user.timezone" value="Europe/Amsterdam"/>
    <property name="user.country.format" value="NL"/>
    <property name="os.name" value="Windows 11"/>
    <property name="java.vm.specification.version" value="19"/>
    <property name="sun.java.launcher" value="SUN_STANDARD"/>
    <property name="user.country" value="US"/>
    <property name="sun.boot.library.path" value="C:\DEV\Java\JDK19\bin"/>
    <property name="sun.java.command" value="C:\Users\stefa\AppData\Local\Temp\surefire9453546619568657497\surefirebooter7726105854470129964.jar C:\Users\stefa\AppData\Local\Temp\surefire9453546619568657497 2023-01-20T15-02-22_846-jvmRun1 surefire5841879811927546490tmp surefire_04317308336316551455tmp"/>
    <property name="jdk.debug" value="release"/>
    <property name="surefire.test.class.path" value="C:\PROJECTS\PRO\Experis\Noroff\assignments\ASSIGNMENT1\RPG_Heroes\target\test-classes;C:\PROJECTS\PRO\Experis\Noroff\assignments\ASSIGNMENT1\RPG_Heroes\target\classes;C:\Users\stefa\.m2\repository\org\junit\jupiter\junit-jupiter\5.9.2\junit-jupiter-5.9.2.jar;C:\Users\stefa\.m2\repository\org\junit\jupiter\junit-jupiter-api\5.9.2\junit-jupiter-api-5.9.2.jar;C:\Users\stefa\.m2\repository\org\opentest4j\opentest4j\1.2.0\opentest4j-1.2.0.jar;C:\Users\stefa\.m2\repository\org\junit\platform\junit-platform-commons\1.9.2\junit-platform-commons-1.9.2.jar;C:\Users\stefa\.m2\repository\org\apiguardian\apiguardian-api\1.1.2\apiguardian-api-1.1.2.jar;C:\Users\stefa\.m2\repository\org\junit\jupiter\junit-jupiter-params\5.9.2\junit-jupiter-params-5.9.2.jar;C:\Users\stefa\.m2\repository\org\junit\jupiter\junit-jupiter-engine\5.9.2\junit-jupiter-engine-5.9.2.jar;C:\Users\stefa\.m2\repository\org\junit\platform\junit-platform-engine\1.9.2\junit-platform-engine-1.9.2.jar;"/>
    <property name="sun.cpu.endian" value="little"/>
    <property name="user.home" value="C:\Users\stefa"/>
    <property name="user.language" value="en"/>
    <property name="java.specification.vendor" value="Oracle Corporation"/>
    <property name="java.version.date" value="2022-10-18"/>
    <property name="java.home" value="C:\DEV\Java\JDK19"/>
    <property name="file.separator" value="\"/>
    <property name="basedir" value="C:\PROJECTS\PRO\Experis\Noroff\assignments\ASSIGNMENT1\RPG_Heroes"/>
    <property name="java.vm.compressedOopsMode" value="Zero based"/>
    <property name="line.separator" value="&#10;"/>
    <property name="java.vm.specification.vendor" value="Oracle Corporation"/>
    <property name="java.specification.name" value="Java Platform API Specification"/>
    <property name="surefire.real.class.path" value="C:\Users\stefa\AppData\Local\Temp\surefire9453546619568657497\surefirebooter7726105854470129964.jar"/>
    <property name="user.script" value=""/>
    <property name="sun.management.compiler" value="HotSpot 64-Bit Tiered Compilers"/>
    <property name="java.runtime.version" value="19.0.1+10-21"/>
    <property name="user.name" value="stefa"/>
    <property name="stdout.encoding" value="Cp1252"/>
    <property name="path.separator" value=";"/>
    <property name="os.version" value="10.0"/>
    <property name="java.runtime.name" value="Java(TM) SE Runtime Environment"/>
    <property name="file.encoding" value="UTF-8"/>
    <property name="java.vm.name" value="Java HotSpot(TM) 64-Bit Server VM"/>
    <property name="localRepository" value="C:\Users\stefa\.m2\repository"/>
    <property name="java.vendor.url.bug" value="https://bugreport.java.com/bugreport/"/>
    <property name="java.io.tmpdir" value="C:\Users\stefa\AppData\Local\Temp\"/>
    <property name="java.version" value="19.0.1"/>
    <property name="user.dir" value="C:\PROJECTS\PRO\Experis\Noroff\assignments\ASSIGNMENT1\RPG_Heroes"/>
    <property name="os.arch" value="amd64"/>
    <property name="java.vm.specification.name" value="Java Virtual Machine Specification"/>
    <property name="sun.os.patch.level" value=""/>
    <property name="native.encoding" value="Cp1252"/>
    <property name="java.library.path" value="C:\DEV\Java\JDK19\bin;C:\WINDOWS\Sun\Java\bin;C:\WINDOWS\system32;C:\WINDOWS;C:\Program Files\Common Files\Oracle\Java\javapath;C:\DEV\Python\Python311\Scripts\;C:\DEV\Python\Python311\;C:\Windows\system32;C:\Windows;C:\Windows\System32\Wbem;C:\Windows\System32\WindowsPowerShell\v1.0\;C:\Windows\System32\OpenSSH\;C:\Program Files (x86)\NVIDIA Corporation\PhysX\Common;C:\Program Files\NVIDIA Corporation\NVIDIA NvDLISR;C:\WINDOWS\system32;C:\WINDOWS;C:\WINDOWS\System32\Wbem;C:\WINDOWS\System32\WindowsPowerShell\v1.0\;C:\WINDOWS\System32\OpenSSH\;C:\DEV\Git\cmd;C:\DEV\Node\NodeLTS18\;C:\DEV\IDEs\PyCharm\PyCharm Community Edition 2022.3\bin;C:\DEV\CLIs\GitHub\;C:\DEV\DB\PostgreSQL\bin;C:\DEV\Java\JDK19\bin;C:\DEV\Git\bin\git.exe;C:\DEV\Sass\dart-sass;C:\DEV\Flutter\FlutterSDK\flutter\bin;C:\DEV\Maven\Maven\apache-maven-4.0.0-alpha-3\bin;C:\Users\stefa\AppData\Local\Microsoft\WindowsApps;C:\DEV\IDEs\PyCharm\PyCharm Community Edition 2022.3\bin;;C:\DEV\IDEs\VSCode\Microsoft VS Code\bin;C:\Users\stefa\AppData\Roaming\npm;C:\DEV\IDEs\IntelliJ\IntelliJ IDEA Community Edition 2022.3\bin;;;C:\DEV\IDEs\IntelliJ\Intellij IDEA Full\IntelliJ IDEA 2022.3.1\bin;;."/>
    <property name="java.vm.info" value="mixed mode, sharing"/>
    <property name="stderr.encoding" value="Cp1252"/>
    <property name="java.vendor" value="Oracle Corporation"/>
    <property name="java.vm.version" value="19.0.1+10-21"/>
    <property name="sun.io.unicode.encoding" value="UnicodeLittle"/>
    <property name="java.class.version" value="63.0"/>
  </properties>
  <testcase name="count_totalDamage_noWeaponNoArmor" classname="org.example.MageTest" time="0.002">
    <system-out><![CDATA[hero not equipped with any weapon. fighting bare-handed.
]]></system-out>
  </testcase>
  <testcase name="create_newHero_checkIfEquipmentisEmpty" classname="org.example.MageTest" time="0.001"/>
  <testcase name="levelUpHero_heroAttributeDexterity_shouldIncrease" classname="org.example.MageTest" time="0"/>
  <testcase name="create_newHero_checkIfNameIsCorrect" classname="org.example.MageTest" time="0.001"/>
  <testcase name="equip_allowedArmor_noExceptionThrown" classname="org.example.MageTest" time="0.003"/>
  <testcase name="count_totalDamage_withWeaponNoArmor" classname="org.example.MageTest" time="0.001"/>
  <testcase name="levelUpHero_heroAttributeIntelligence_shouldIncrease" classname="org.example.MageTest" time="0"/>
  <testcase name="levelUpHero_heroAttributeStrength_shouldIncrease" classname="org.example.MageTest" time="0"/>
  <testcase name="levelUpHero_heroLevel_shouldIncrease" classname="org.example.MageTest" time="0.001"/>
  <testcase name="count_StrengthFromTotalAttributesAtGivenLevel_withOnePieceOfArmor" classname="org.example.MageTest" time="0"/>
  <testcase name="count_StrengthFromTotalAttributesAtGivenLevel_withTwoPieceOfArmor" classname="org.example.MageTest" time="0"/>
  <testcase name="count_IntelligenceFromTotalAttributesAtGivenLevel_withOnePieceOfArmor" classname="org.example.MageTest" time="0.001"/>
  <testcase name="equip_allowedWeapon_noExceptionThrown" classname="org.example.MageTest" time="0.001"/>
  <testcase name="count_IntelligenceFromTotalAttributesAtGivenLevel_withTwoPieceOfArmor" classname="org.example.MageTest" time="0"/>
  <testcase name="count_DexterityFromTotalAttributesAtGivenLevel_withReplacedPieceOfArmor" classname="org.example.MageTest" time="0"/>
  <testcase name="count_StrengthFromTotalAttributesAtGivenLevel_withoutArmor" classname="org.example.MageTest" time="0.001"/>
  <testcase name="count_IntelligenceFromTotalAttributesAtGivenLevel_withReplacedPieceOfArmor" classname="org.example.MageTest" time="0"/>
  <testcase name="count_DexterityFromTotalAttributesAtGivenLevel_withOnePieceOfArmor" classname="org.example.MageTest" time="0.002"/>
  <testcase name="count_DexterityFromTotalAttributesAtGivenLevel_withTwoPieceOfArmor" classname="org.example.MageTest" time="0"/>
  <testcase name="equip_allowedArmor_updateEquipment" classname="org.example.MageTest" time="0.001"/>
  <testcase name="count_DexterityFromTotalAttributesAtGivenLevel_withoutArmor" classname="org.example.MageTest" time="0"/>
  <testcase name="count_IntelligenceFromTotalAttributesAtGivenLevel_withoutArmor" classname="org.example.MageTest" time="0"/>
  <testcase name="equip_allowedWeapon_updateEquipment" classname="org.example.MageTest" time="0.001"/>
  <testcase name="equip_notAllowedRequiredLevelOfArmor_ExceptionThrown" classname="org.example.MageTest" time="0.001">
    <system-out><![CDATA[AS EXPECTED org.example.shared.InvalidArmorException: Invalid Armor: 
]]></system-out>
  </testcase>
  <testcase name="equip_notAllowedtypeOfArmor_exceptionThrown" classname="org.example.MageTest" time="0.001">
    <system-out><![CDATA[AS EXPECTED org.example.shared.InvalidArmorException: Invalid Armor: 
]]></system-out>
  </testcase>
  <testcase name="create_newHero_checkIfStrengthIsCorrect" classname="org.example.MageTest" time="0.001"/>
  <testcase name="count_StrengthFromTotalAttributesAtGivenLevel_withReplacedPieceOfArmor" classname="org.example.MageTest" time="0.001"/>
  <testcase name="equip_notAllowedtypeOfWeapon_exceptionThrown" classname="org.example.MageTest" time="0">
    <system-out><![CDATA[AS EXPECTED org.example.shared.InvalidWeaponException: Invalid Weapon: 
]]></system-out>
  </testcase>
  <testcase name="create_newHero_checkIfLevelIsCorrect" classname="org.example.MageTest" time="0"/>
  <testcase name="count_totalDamage_withReplacedWeaponNoArmor" classname="org.example.MageTest" time="0.001"/>
  <testcase name="create_newHero_checkIfIntelligenceIsCorrect" classname="org.example.MageTest" time="0"/>
  <testcase name="create_newHero_checkIfDexterityIsCorrect" classname="org.example.MageTest" time="0"/>
  <testcase name="count_totalDamage_withWeaponwithArmor" classname="org.example.MageTest" time="0"/>
  <testcase name="equip_notAllowedRequiredLevelOfWeapon_ExceptionThrown" classname="org.example.MageTest" time="0">
    <system-out><![CDATA[AS EXPECTED org.example.shared.InvalidWeaponException: Invalid Weapon: 
]]></system-out>
  </testcase>
</testsuite>